<?xml version="1.0" encoding="UTF-8"?>
<svg width="79px" height="52px" viewBox="0 0 79 52" version="1.1" xmlns="http://www.w3.org/2000/svg" xmlns:xlink="http://www.w3.org/1999/xlink">
    <!-- Generator: Sketch 62 (91390) - https://sketch.com -->
    <title>Icon</title>
    <desc>Created with Sketch.</desc>
    <g id="1---Marketplace" stroke="none" stroke-width="1" fill="none" fill-rule="evenodd">
        <g id="1---App-Store-Home-Page" transform="translate(-1348.000000, -470.000000)" fill="#907CFE" fill-rule="nonzero">
            <g id="Featured" transform="translate(405.000000, 376.000000)">
                <g id="4" transform="translate(855.000000, 48.000000)">
                    <g id="Standard-App-Icon" transform="translate(88.000000, 46.000000)">
                        <polygon id="Icon" points="79 0 53.291425 52 0 52 25.7084565 0"></polygon>
                    </g>
                </g>
            </g>
        </g>
    </g>
</svg>