<?xml version="1.0" encoding="UTF-8"?>
<svg width="242px" height="781px" viewBox="0 0 242 781" version="1.1" xmlns="http://www.w3.org/2000/svg" xmlns:xlink="http://www.w3.org/1999/xlink">
    <!-- Generator: sketchtool 61 (101010) - https://sketch.com -->
    <title>3CF9F96C-D977-4C5B-8128-8C1B7D5A74F2svg</title>
    <desc>Created with sketchtool.</desc>
    <g id="5---My-Profile" stroke="none" stroke-width="1" fill="none" fill-rule="evenodd" opacity="0.149999991">
        <g id="5.4---My-Profile---Payment" transform="translate(-1678.000000, -419.000000)" fill="#595959" fill-rule="nonzero">
            <g id="Illustration-2" transform="translate(2169.914995, 843.407550) rotate(53.000000) translate(-2169.914995, -843.407550) translate(1647.414995, 308.907550)">
                <g id="1" style="mix-blend-mode: overlay;" transform="translate(0.726928, 0.876301)">
                    <g id="Group" opacity="0.8" transform="translate(195.724771, 0.000000)">
                        <g id="triangle36-26" transform="translate(68.573394, 539.516854)">
                            <path d="M456.785321,258.604382 C456.658397,258.624934 456.528392,258.624934 456.401468,258.604382 L0.575779817,54.6330337 C0.216665462,54.4542406 0.00618835589,54.0703333 0.047981652,53.6703371 C0.109637911,53.264444 0.433372296,52.9495175 0.8396789,52.9001798 L458.272752,0.385078652 C458.524309,0.360028818 458.775266,0.438160526 458.968486,0.601685393 C459.161755,0.782811452 459.274171,1.03438634 459.280367,1.29964045 L457.768945,257.78609 C457.782715,258.091717 457.625388,258.379522 457.361101,258.53218 C457.183218,258.622142 456.979805,258.64765 456.785321,258.604382 L456.785321,258.604382 Z M4.10243119,54.1516854 L455.777706,256.317978 L457.241147,2.21420225 L4.10243119,54.1516854 Z" id="Shape"></path>
                        </g>
                    </g>
                    <g id="triangle36-40" opacity="0.3" transform="translate(632.357798, 961.696629)">
                        <path d="M53.7230734,68.121618 C53.4657933,68.1144525 53.2228173,68.001282 53.0513303,67.8087416 L0.271513761,8.14561798 C0.0473559244,7.88665649 -0.00863291844,7.52156718 0.127568807,7.20698876 C0.247580489,6.89346707 0.537388945,6.67776145 0.871284404,6.6534382 L64.7348624,0.660651685 C65.014348,0.633497551 65.2901605,0.740604525 65.478578,0.949460674 C65.6714614,1.15548234 65.7520504,1.44293565 65.6944954,1.71961798 L54.6107339,67.4717978 C54.5622486,67.8226818 54.305727,68.1086157 53.9629817,68.1938202 L53.7230734,68.121618 Z M2.81454128,8.26595506 L53.1952752,65.2094607 L63.7992202,2.63417978 L2.81454128,8.26595506 Z" id="Shape"></path>
                    </g>
                    <g id="triangle36-41" opacity="0.3" transform="translate(564.183486, 967.916854)">
                        <path d="M121.897385,61.9013933 L121.537523,61.9013933 L0.791697248,9.7954382 C0.409512769,9.64177348 0.188597442,9.23882694 0.263899083,8.83274157 C0.317549871,8.42276069 0.645463142,8.10376905 1.05559633,8.06258427 L69.0216055,0.50541573 C69.3171331,0.461929241 69.6146475,0.570461687 69.8133028,0.794224719 L122.593119,60.4573483 C122.85343,60.7891891 122.85343,61.256676 122.593119,61.5885169 C122.414231,61.784722 122.162416,61.8979648 121.897385,61.9013933 Z M4.63022936,9.41035955 L118.514679,58.5560225 L68.7337156,2.26233708 L4.63022936,9.41035955 Z" id="Shape"></path>
                    </g>
                    <g id="triangle36-42" opacity="0.3" transform="translate(465.821101, 926.595506)">
                        <path d="M99.513945,51.1167865 C99.3803299,51.152518 99.239716,51.152518 99.1061009,51.1167865 L0.959633028,1.94705618 C0.554419273,1.7430654 0.360202582,1.27135544 0.503807339,0.839955056 C0.670935897,0.405342304 1.13051276,0.159452143 1.5833945,0.262337079 L167.767844,41.7786292 C168.19609,41.8499824 168.510068,42.2215914 168.510068,42.6570899 C168.510068,43.0925883 168.19609,43.4641973 167.767844,43.5355506 L99.777844,51.1167865 L99.513945,51.1167865 Z M9.06853211,4.01685393 L99.6818807,49.2876629 L162.393899,42.3081124 L9.06853211,4.01685393 Z" id="Shape"></path>
                    </g>
                    <g id="triangle36-43" opacity="0.3" transform="translate(429.834862, 733.056180)">
                        <path d="M203.490183,237.074876 L203.250275,237.074876 L37.0898165,195.582652 C36.744879,195.509366 36.4789814,195.233093 36.4180734,194.884697 L0.0959633028,1.43080899 C0.0316403567,1.0268987 0.235453691,0.627707072 0.599770642,0.444044944 C0.965327352,0.274845549 1.39861821,0.373635123 1.65536697,0.684719101 L204.161927,235.606764 C204.39791,235.928965 204.39791,236.367597 204.161927,236.689798 C204.011048,236.917218 203.762091,237.059933 203.490183,237.074876 L203.490183,237.074876 Z M38.0734404,193.946067 L200.947156,234.62 L2.49504587,4.36703371 L38.0734404,193.946067 Z" id="Shape"></path>
                    </g>
                    <g id="triangle36-44" opacity="0.3" transform="translate(396.247706, 733.056180)">
                        <path d="M1.24752294,199.096494 C0.990242884,199.089329 0.747266808,198.976158 0.575779817,198.783618 C0.396856872,198.579471 0.317731157,198.306057 0.359862385,198.037528 L33.6831193,1.09386517 C33.7633395,0.664367645 34.1352168,0.351800033 34.5707798,0.347775281 C34.998974,0.347775281 35.3682968,0.64985991 35.4584404,1.06979775 L71.7805505,194.523685 C71.8219743,194.780796 71.7521619,195.043428 71.5886239,195.245708 C71.4329213,195.448498 71.1958024,195.571841 70.9408716,195.582652 L1.36747706,199.096494 L1.24752294,199.096494 Z M34.546789,6.36462921 L2.25513761,197.219236 L69.7413303,193.82573 L34.546789,6.36462921 Z" id="Shape"></path>
                    </g>
                    <g id="triangle36-47" opacity="0.3" transform="translate(586.775229, 612.719101)">
                        <path d="M110.317431,351.467303 C109.927717,351.45956 109.583615,351.210249 109.453761,350.841551 L0.175550459,1.86402247 C0.0533429755,1.47716689 0.199867745,1.05578826 0.535412844,0.829123596 C0.864115289,0.588322089 1.31028838,0.588322089 1.63899083,0.829123596 L366.107615,319.024427 C366.378272,319.254855 366.486055,319.624891 366.381659,319.965262 C366.277263,320.305633 365.980764,320.550878 365.627798,320.588809 L110.533349,351.467303 L110.317431,351.467303 Z M2.95848624,4.27076404 L111.061147,349.54191 L363.396651,319.048494 L2.95848624,4.27076404 Z" id="Shape"></path>
                    </g>
                    <g id="triangle36-48" opacity="0.3" transform="translate(586.775229, 612.719101)">
                        <path d="M46.5258257,357.411955 C46.0826632,357.405825 45.7081027,357.080847 45.6381651,356.641798 L0.247522936,1.62334831 C0.173587413,1.15418416 0.479729299,0.709390786 0.943256881,0.612516854 C1.40327514,0.51712583 1.86023801,0.788011386 1.99885321,1.23826966 L111.277064,350.215798 C111.360951,350.477085 111.316451,350.762794 111.15711,350.985955 C111.011488,351.211071 110.774655,351.360664 110.509358,351.395101 L46.621789,357.36382 L46.5258257,357.411955 Z M3.34233945,11.4909888 L47.3415138,355.655034 L109.237844,349.854787 L3.34233945,11.4909888 Z" id="Shape"></path>
                    </g>
                    <g id="triangle36-49" opacity="0.3" transform="translate(429.834862, 612.719101)">
                        <path d="M203.490183,357.413258 C203.222453,357.421557 202.965438,357.305976 202.79445,357.099079 L0.311880734,122.177034 C0.148876253,121.983197 0.0709931853,121.731439 0.0959633028,121.479079 C0.124265853,121.235154 0.244418668,121.011301 0.431834862,120.853326 L157.523761,0.780988764 C157.778252,0.587764893 158.114937,0.542121681 158.411422,0.660651685 C158.710099,0.785964685 158.920123,1.06078425 158.963211,1.38267416 L204.329862,356.136382 C204.365858,356.262202 204.365858,356.395641 204.329862,356.521461 C204.330219,356.766216 204.230141,357.000328 204.053144,357.168784 C203.876148,357.337239 203.63784,357.425185 203.39422,357.413258 L203.490183,357.413258 Z M2.27912844,121.719753 L202.194679,353.657438 L157.379817,3.16366292 L2.27912844,121.719753 Z" id="Shape"></path>
                    </g>
                    <g id="triangle36-51" opacity="0.3" transform="translate(369.458716, 603.092135)">
                        <path d="M61.3357798,132.116876 L61.1198624,132.116876 C60.8559071,132.059344 60.6339839,131.881238 60.5200917,131.635528 L0.399082569,1.67148315 C0.244802832,1.40340971 0.244802832,1.07312962 0.399082569,0.80505618 C0.574107136,0.539844969 0.873915026,0.384905415 1.19077982,0.395360728 L218.427706,10.2394831 C218.807161,10.261948 219.132897,10.5182448 219.245059,10.8825939 C219.35722,11.2469431 219.232264,11.6428687 218.931514,11.8760674 L61.8395872,131.948404 C61.6907927,132.050988 61.5161696,132.109381 61.3357798,132.116876 L61.3357798,132.116876 Z M2.65422018,2.15283146 L61.6716514,129.710135 L215.90867,11.7797978 L2.65422018,2.15283146 Z" id="Shape"></path>
                    </g>
                    <g id="triangle36-52" opacity="0.3" transform="translate(586.775229, 367.231461)">
                        <path d="M365.555826,566.076775 L365.555826,566.076775 C365.343909,566.076775 365.138983,566.000465 364.980046,565.859843 L0.535412844,247.664539 C0.257966797,247.4181 0.162318139,247.024689 0.295504587,246.677775 L91.9404587,1.19013483 C92.0651136,0.855821704 92.3767117,0.628481446 92.732156,0.610825448 C93.0894068,0.590154366 93.4233856,0.79118136 93.5718349,1.11793258 L366.203578,564.560202 C366.372801,564.724042 366.46748,564.950026 366.46748,565.185955 C366.46748,565.426359 366.370757,565.656584 366.199063,565.824294 C366.027369,565.992003 365.795377,566.082947 365.555826,566.076775 L365.555826,566.076775 Z M2.19077982,246.72591 L362.77289,561.59991 L92.8761009,3.69314607 L2.19077982,246.72591 Z" id="Shape"></path>
                    </g>
                    <g id="triangle36-55" opacity="0.3" transform="translate(525.399083, 975.137079)">
                        <path d="M160.681789,54.6811706 L160.681789,54.6811706 L0.854908257,46.1131685 C0.508651038,46.0898658 0.205612062,45.8713665 0.0732223076,45.5495518 C-0.0591674468,45.2277371 0.00205569939,44.8584275 0.231146789,44.5969213 L39.2642202,1.08303371 C39.5253747,0.7964899 39.9354344,0.700822737 40.2958257,0.842359551 L161.041651,52.9483146 C161.448724,53.1146159 161.673185,53.5547341 161.56945,53.9832135 C161.469728,54.393589 161.102837,54.6820706 160.681789,54.6811706 L160.681789,54.6811706 Z M2.77417431,44.404382 L155.691697,52.6113708 L40.1758716,2.79182022 L2.77417431,44.404382 Z" id="Shape"></path>
                    </g>
                    <g id="triangle36-56" opacity="0.3" transform="translate(465.821101, 926.595506)">
                        <path d="M60.4328899,94.6306742 L60.4328899,94.6306742 C60.1512846,94.6067026 59.8955691,94.4563219 59.737156,94.2215281 L0.623761468,1.63417978 C0.387778238,1.31197912 0.387778238,0.873346726 0.623761468,0.551146067 C0.886717095,0.248472437 1.31905173,0.159758037 1.6793578,0.334539326 L99.8977982,49.408 C100.145066,49.5434482 100.320513,49.7810578 100.377615,50.0578202 C100.427324,50.3341796 100.347717,50.6181288 100.161697,50.8279775 L61.0806422,94.3418652 C60.9124003,94.5218514 60.6788022,94.6260043 60.4328899,94.6306742 Z M3.83853211,3.41516854 L60.552844,92.248 L98.0505046,50.4910337 L3.83853211,3.41516854 Z" id="Shape"></path>
                    </g>
                    <g id="triangle36-57" opacity="0.3" transform="translate(396.247706, 926.595506)">
                        <path d="M130.006284,94.6306742 C129.823404,94.63863 129.644023,94.5786454 129.502477,94.4622022 L0.743715596,5.41276404 C0.42859161,5.19268732 0.284699176,4.79812572 0.383853211,4.426 C0.499320976,4.06355477 0.821484776,3.80690206 1.19954128,3.77617978 L70.7729358,0.261835998 C71.0957465,0.251490337 71.3989534,0.41740393 71.564633,0.695550562 L130.678028,93.2588315 C130.957224,93.5838735 130.957224,94.064958 130.678028,94.39 C130.49599,94.5584201 130.253489,94.645304 130.006284,94.6306742 Z M3.95848624,5.41276404 L126.839495,90.5392135 L70.5330275,2.06739326 L3.95848624,5.41276404 Z" id="Shape"></path>
                    </g>
                    <g id="triangle36-58" opacity="0.3" transform="translate(261.899083, 733.056180)">
                        <path d="M135.596147,199.096494 C135.362052,199.091878 135.138703,198.997082 134.972385,198.831753 L0.623761468,67.0867191 C0.405462058,66.8750531 0.306520495,66.5682574 0.359862385,66.268427 C0.430324515,65.9682991 0.64679373,65.7239937 0.935642202,65.6186067 L168.559541,0.395910112 C168.859042,0.273530657 169.2016,0.329257821 169.447202,0.540314607 C169.687089,0.749694819 169.804557,1.06696439 169.759083,1.38267416 L136.435826,198.350404 C136.380765,198.67681 136.149758,198.945634 135.836055,199.04836 L135.596147,199.096494 Z M2.92688073,66.7257079 L134.996376,196.256539 L167.767844,2.58604494 L2.92688073,66.7257079 Z" id="Shape"></path>
                    </g>
                    <g id="triangle36-59" opacity="0.3" transform="translate(261.899083, 798.038202)">
                        <path d="M30.3723853,149.108472 C29.9423402,149.102515 29.5784183,148.788137 29.5087156,148.362382 L0.407844037,1.55114607 C0.338444969,1.16541155 0.521784939,0.778200441 0.863669725,0.588449438 C1.20674517,0.387209471 1.64242692,0.446810286 1.91926606,0.732853933 L136.26789,132.45382 C136.506616,132.702965 136.589564,133.063555 136.483807,133.392449 C136.388095,133.721116 136.103592,133.958958 135.764083,133.994135 L30.5403211,148.988135 L30.3723853,149.108472 Z M2.75894495,4.15042697 L31.0921101,147.183079 L133.676881,132.574157 L2.75894495,4.15042697 Z" id="Shape"></path>
                    </g>
                    <g id="triangle36-60" opacity="0.3" transform="translate(261.899083, 603.092135)">
                        <path d="M1.29550459,197.436048 C1.03536139,197.441599 0.787256549,197.32604 0.623761468,197.122966 C0.414660388,196.818671 0.414660388,196.41643 0.623761468,196.112135 L108.126651,0.97352809 C108.283513,0.668934952 108.600748,0.481729992 108.942339,0.491763929 C109.282674,0.510836365 109.585972,0.713680217 109.734037,1.02166292 L169.855046,130.985708 C169.958698,131.211698 169.966113,131.470294 169.875581,131.701888 C169.785049,131.933481 169.604383,132.118085 169.375229,132.213146 L1.75133028,197.436048 L1.29550459,197.436048 Z M108.726422,3.38026966 L3.3587156,194.66809 L167.767844,130.720966 L108.726422,3.38026966 Z" id="Shape"></path>
                    </g>
                    <g id="triangle36-61" opacity="0.3" transform="translate(261.899083, 798.038202)">
                        <path d="M2.97486239,157.41173 C2.78211566,157.41173 2.59575321,157.342241 2.44706422,157.219191 C2.21584992,157.052701 2.08124125,156.782624 2.08720183,156.497169 L0.407844037,1.47894382 C0.392596104,1.01325273 0.737776782,0.614503 1.19954128,0.564382022 C1.66013917,0.528433876 2.07794393,0.835120649 2.18316514,1.28640449 L31.2600459,148.09764 C31.353315,148.553067 31.08163,149.003827 30.6362844,149.132539 L3.3587156,157.363596 L2.97486239,157.41173 Z M2.30311927,11.1781124 L3.86252294,155.293798 L29.3407798,147.568157 L2.30311927,11.1781124 Z" id="Shape"></path>
                    </g>
                    <g id="triangle36-62" opacity="0.3" transform="translate(175.532110, 798.038202)">
                        <path d="M89.3418349,157.41173 C89.1066563,157.412361 88.8813916,157.316752 88.7180734,157.146989 L0.527798165,68.7955056 C0.361942083,68.6005173 0.268670663,68.3538349 0.263899083,68.0975506 C0.283100894,67.8318715 0.413923569,67.5868895 0.623761468,67.4236629 L87.1106881,0.756921348 C87.4062106,0.579828108 87.7747986,0.579828108 88.0703211,0.756921348 C88.3646346,0.915618777 88.5554752,1.21646845 88.5741284,1.55114607 L90.2294954,156.304629 C90.2528682,156.399471 90.2528682,156.498596 90.2294954,156.593438 C90.2435782,156.840055 90.1520608,157.080977 89.9779461,157.255648 C89.8038314,157.430318 89.5636764,157.522128 89.317844,157.50942 L89.3418349,157.41173 Z M2.54302752,68.2419551 L88.4301835,154.307034 L86.7748165,3.284 L2.54302752,68.2419551 Z" id="Shape"></path>
                    </g>
                    <g id="triangle36-63" opacity="0.3" transform="translate(0.399083, 603.092135)">
                        <path d="M262.795505,197.435843 C262.636086,197.433384 262.479653,197.392086 262.339679,197.315506 L0.431834862,37.2431236 C0.10254058,37.0445806 -0.0620576784,36.6560542 0.0239908257,36.280427 C0.113512618,35.9028085 0.430888513,35.623012 0.815688073,35.5824719 L370.274404,0.371842697 C370.607949,0.343221153 370.9303,0.500291583 371.114083,0.780988764 C371.291794,1.06846911 371.291794,1.43213763 371.114083,1.71961798 L263.635183,196.858225 C263.516123,197.070603 263.317506,197.226539 263.083394,197.291438 L262.795505,197.435843 Z M3.69458716,37.2431236 L262.459633,195.149438 L368.667018,2.34537079 L3.69458716,37.2431236 Z" id="Shape"></path>
                    </g>
                    <g id="triangle36-64" opacity="0.3" transform="translate(-0.000000, 638.193258)">
                        <path d="M176.707661,228.905191 C176.424929,228.903328 176.15906,228.769969 175.987936,228.54418 L0.591009174,1.92539326 C0.317892488,1.58905124 0.317892488,1.10649932 0.591009174,0.770157303 C0.88119691,0.456100291 1.34975717,0.386091932 1.71857798,0.601685393 L263.674404,160.55373 C263.926795,160.709665 264.08786,160.978963 264.106735,161.275753 C264.115998,161.568708 263.981422,161.847719 263.746376,162.021843 L177.379404,228.712652 C177.187557,228.859222 176.947736,228.927962 176.707661,228.905191 L176.707661,228.905191 Z M5.0053211,4.69314607 L176.875596,226.739124 L261.611193,161.39609 L5.0053211,4.69314607 Z" id="Shape"></path>
                    </g>
                    <g id="triangle36-67" opacity="0.3" transform="translate(0.399083, 251.707865)">
                        <path d="M0.959633028,388.771798 L0.599770642,388.771798 C0.210181788,388.599781 -0.00889837353,388.180201 0.0719724771,387.760966 L77.0105505,1.64741573 C77.0509876,1.41546312 77.1837906,1.21001226 77.3783936,1.07834937 C77.5729966,0.946686488 77.8126357,0.900153612 78.042156,0.949460674 L243.266972,28.5547865 C243.566122,28.6102845 243.817964,28.8118231 243.938384,29.0920896 C244.058804,29.3723561 244.031932,29.6944135 243.866743,29.9506966 L1.55940367,388.362652 C1.42667594,388.578489 1.20851066,388.727315 0.959633028,388.771798 Z M78.593945,2.80265169 L2.66298165,383.669506 L241.587615,30.1191685 L78.593945,2.80265169 Z" id="Shape"></path>
                    </g>
                    <g id="triangle36-68" opacity="0.3" transform="translate(0.399083, 279.588764)">
                        <path d="M0.959633028,360.891046 C0.631801109,360.896857 0.327393958,360.721032 0.16793578,360.433618 C-0.0140429864,360.138684 -0.0140429864,359.765856 0.16793578,359.470921 L242.379312,1.08303371 C242.572193,0.815430798 242.891062,0.669197003 243.218991,0.694380169 C243.552358,0.742418005 243.836294,0.962941129 243.962706,1.27557303 L371.114083,324.476899 C371.246299,324.725027 371.246299,325.022995 371.114083,325.271124 C370.963501,325.517768 370.705497,325.67842 370.418349,325.704337 L0.959633028,360.891046 Z M242.90711,3.48977528 L2.7109633,358.893303 L369.00289,323.995551 L242.90711,3.48977528 Z" id="Shape"></path>
                    </g>
                </g>
            </g>
        </g>
    </g>
</svg>